CSHL career development series
…
arrange()

arrange takes a tibble and a set of variable names

re-arrange observations based on variable selected for re-ordering.

Example: order coord by location and year:

arrange(coord, location, year)

## # A tibble: 322 x 9
##    name   year cluster type  x.coordinate y.coordinate location   lat
##    <chr> <dbl> <chr>   <chr>        <dbl>        <dbl> <chr>    <dbl>
##  1 AK/4  1993 BE92    AG           6.21        -3.79  AKITA     39.7
##  2 AM/1  1977 VI75    AG           0.895        9.41  AMSTERD  52.4
##  3 AM/1  1977 VI75    SR           0.211        7.10  AMSTERD  52.4
##  4 AM/4  1992 BE89    AG          -2.00        -0.924 AMSTERD  52.4
##  5 AT/3  1988 SI87    AG          -0.765        2.75  ATLANTA   33.8
##  6 AT/2  1989 SI87    AG          -1.61         1.03  ATLANTA   33.8
##  7 AU/1  1997 SY97    AG          -3.28       -10.1   AUCKLAND -36.8
##  8 AU/1  1997 SY97    SR          -2.02        -9.26  AUCKLAND -36.8
##  9 AL/4  1982 BK79    AG          -4.07         6.18  AUSTRAL -33.9
## 10 BA/1  1979 BK79    AG          -5.95         5.44  BANGKOK   13.8
## #  with 312 more rows, and 1 more variable: lng <dbl>

Change the order of observations in descending order

arrange orders the variables in ascending order

re-order in descending order with desc():

arrange(coord, desc(location), year)

## # A tibble: 322 x 9
##    name   year cluster type  x.coordinate y.coordinate location   lat   lng
##    <chr> <dbl> <chr>   <chr>        <dbl>        <dbl> <chr>    <dbl> <dbl>
##  1 YA/5  1993 BE92    AG          6.59         -3.91  YAMAGA    33.0  131.
##  2 YA/6  1993 BE92    AG          7.74         -2.70  YAMAGA    33.0  131.
##  3 YA/6  1993 BE92    AG          6.93         -3.59  YAMAGA    33.0  131.
##  4 WU/3  1995 WU95    AG          0.0395       -6.20  WUHAN     30.6  114.
##  5 WE/4  1985 BK79    AG         -2.93          4.27  WELLING -41.3  175.
##  6 WE/4  1985 BK79    SR         -1.72          3.62  WELLING -41.3  175.
##  7 WE/5  1989 SI87    AG          0.891         0.733 WELLING -41.3  175.
##  8 WE/3  1990 BE89    AG         -2.06         -1.45  WELLING -41.3  175.
##  9 WE/5  1993 BE92    AG          5.22         -4.56  WELLING -41.3  175.
## 10 WK/1  1989 SI87    AG          0.382         1.53  WAIKATO  -37.6  175.
## #  with 312 more rows
Exercises

How does the ouput change if you sorted by year first, then location?

Sort coord to find when the last virus was isolated.

Find the largest and smallest x.coordinate in the dataset.

Exercises

How does the ouput change if you sorted by year first, then location?

arrange(coord, year, location)

## # A tibble: 322 x 9
##    name   year cluster type  x.coordinate y.coordinate location   lat
##    <chr> <dbl> <chr>   <chr>        <dbl>        <dbl> <chr>    <dbl>
##  1 BI/1  1968 HK68    AG            4.05         15.0 BILTHOV  52.1
##  2 BI/1  1968 HK68    AG            4.10         14.8 BILTHOV  52.1
##  3 BI/1  1968 HK68    AG            4.36         13.9 BILTHOV  52.1
##  4 HK/1  1968 HK68    AG            6.28         13.9 HONGKONG  22.3
##  5 HK/1  1968 HK68    SR            5.63         14.1 HONGKONG  22.3
##  6 BI/8  1969 HK68    AG            3.87         14.3 BILTHOV  52.1
##  7 BI/9  1969 HK68    AG            4.87         14.1 BILTHOV  52.1
##  8 BI/1  1969 HK68    AG            4.40         14.9 BILTHOV  52.1
##  9 BI/9  1970 HK68    AG            5.06         14.5 BILTHOV  52.1
## 10 BI/2  1970 HK68    AG            4.82         15.5 BILTHOV  52.1
## #  with 312 more rows, and 1 more variable: lng <dbl>

Exercises

Sort coord to find when the last virus was isolated.

arrange(coord, desc(year))

## # A tibble: 322 x 9
##    name   year cluster type  x.coordinate y.coordinate location   lat   lng
##    <chr> <dbl> <chr>   <chr>        <dbl>        <dbl> <chr>    <dbl> <dbl>
##  1 NL/2  2003 FU02    AG          -0.152        -14.0 NETHERL  52.1  4.27
##  2 NL/2  2003 FU02    AG          -1.59         -12.7 NETHERL  52.1  4.27
##  3 NL/2  2003 FU02    AG          -2.07         -14.0 NETHERL  52.1  4.27
##  4 NL/2  2003 FU02    AG          -1.22         -13.1 NETHERL  52.1  4.27
##  5 FI/1  2003 FU02    AG          -2.15         -13.4 FINLAND   60.2 24.9 
##  6 NL/2  2003 SY97    AG          -1.25         -10.3 NETHERL  52.1  4.27
##  7 NL/8  2003 SY97    SR          -2.39         -11.4 NETHERL  52.1  4.27
##  8 NL/2  2003 FU02    SR          -1.69         -13.6 NETHERL  52.1  4.27
##  9 NL/1  2002 SY97    AG           0.105        -11.5 NETHERL  52.1  4.27
## 10 NL/1  2002 SY97    AG          -2.49         -10.1 NETHERL  52.1  4.27
## #  with 312 more rows

Exercises

Find the largest and smallest x.coordinate in the dataset.

arrange(coord, desc(x.coordinate))

## # A tibble: 322 x 9
##    name   year cluster type  x.coordinate y.coordinate location   lat   lng
##    <chr> <dbl> <chr>   <chr>        <dbl>        <dbl> <chr>    <dbl> <dbl>
##  1 YA/6  1993 BE92    AG            7.74        -2.70 YAMAGA    33.0 131. 
##  2 HK/1  1971 HK68    SR            6.98        16.7  HONGKONG  22.3 114. 
##  3 YA/6  1993 BE92    AG            6.93        -3.59 YAMAGA    33.0 131. 
##  4 HK/4  1996 BE92    AG            6.86        -5.21 HONGKONG  22.3 114. 
##  5 SE/C  1992 BE92    AG            6.84        -2.84 SENDAI    38.3 141. 
##  6 YA/5  1993 BE92    AG            6.59        -3.91 YAMAGA    33.0 131. 
##  7 JO/3  1994 BE92    AG            6.57        -5.17 JOHANNE -26.2  28.0
##  8 SG/6  1993 BE92    AG            6.28        -4.11 SHIGA     35.1 136. 
##  9 HK/1  1968 HK68    AG            6.28        13.9  HONGKONG  22.3 114. 
## 10 AK/4  1993 BE92    AG            6.21        -3.79 AKITA     39.7 140. 
## #  with 312 more rows

arrange(coord, x.coordinate)

## # A tibble: 322 x 9
##    name   year cluster type  x.coordinate y.coordinate location   lat
##    <chr> <dbl> <chr>   <chr>        <dbl>        <dbl> <chr>    <dbl>
##  1 RD/5  1980 BK79    SR           -6.03        7.58  ROTTERD  51.9
##  2 BA/1  1979 BK79    AG           -5.95        5.44  BANGKOK   13.8
##  3 BA/1  1979 BK79    SR           -5.88        6.68  BANGKOK   13.8
##  4 PH/2  1982 BK79    AG           -5.52        5.44  PHILIPP  14.6
##  5 PH/2  1982 BK79    SR           -5.32        6.74  PHILIPP  14.6
##  6 LE/3  1986 BK79    AG           -5.17        3.14  LENINGR  59.9
##  7 NL/2  1980 BK79    SR           -4.87        7.73  NETHERL  52.1
##  8 NL/2  1982 BK79    SR           -4.68        7.26  NETHERL  52.1
##  9 PA/5  1992 BE89    AG           -4.58       -0.976 PARIS     48.9
## 10 PA/5  1992 BE89    AG           -4.54       -1.22  PARIS     48.9
## #  with 312 more rows, and 1 more variable: lng <dbl>
…
select()

select() a subset of variables

specify the tibble (first argument) followed by variables to select

Example: select only name and location:

select(coord, name, location)

## # A tibble: 322 x 2
##    name        location 
##    <chr>       <chr>    
##  1 BI/15793/68 BILTHOVEN
##  2 BI/16190/68 BILTHOVEN
##  3 BI/16398/68 BILTHOVEN
##  4 BI/808/69   BILTHOVEN
##  5 BI/908/69   BILTHOVEN
##  6 BI/17938/69 BILTHOVEN
##  7 BI/93/70    BILTHOVEN
##  8 BI/2668/70  BILTHOVEN
##  9 BI/6449/71  BILTHOVEN
## 10 BI/21438/71 BILTHOVEN
## #  with 312 more rows

Exclude a subset of variables with select()

use select() with the variable name preceded by a minus -:

select(coord, -type)

## # A tibble: 322 x 8
##    name         year cluster x.coordinate y.coordinate location   lat   lng
##    <chr>       <dbl> <chr>          <dbl>        <dbl> <chr>    <dbl> <dbl>
##  1 BI/15793/68  1968 HK68            4.05         15.0 BILTHOV  52.1  5.02
##  2 BI/16190/68  1968 HK68            4.10         14.8 BILTHOV  52.1  5.02
##  3 BI/16398/68  1968 HK68            4.36         13.9 BILTHOV  52.1  5.02
##  4 BI/808/69    1969 HK68            3.87         14.3 BILTHOV  52.1  5.02
##  5 BI/908/69    1969 HK68            4.87         14.1 BILTHOV  52.1  5.02
##  6 BI/17938/69  1969 HK68            4.40         14.9 BILTHOV  52.1  5.02
##  7 BI/93/70     1970 HK68            5.06         14.5 BILTHOV  52.1  5.02
##  8 BI/2668/70   1970 HK68            4.82         15.5 BILTHOV  52.1  5.02
##  9 BI/6449/71   1971 HK68            3.87         15.9 BILTHOV  52.1  5.02
## 10 BI/21438/71  1971 HK68            4.27         14.1 BILTHOV  52.1  5.02
## #  with 312 more rows
…
starts_with("year"): matches names that begin with year.

ends_with("coordinate"): matches names that end with coordinate.

contains("coord"): matches names that contain coord.

num_range("X", 1:3): matches X1, X2 and X3.

everything(): matches everything that has not specifically been named before.

Example: select all columns that end with the word coordinate:

select(coord, ends_with("coordinate"))

## # A tibble: 322 x 2
##    x.coordinate y.coordinate
##           <dbl>        <dbl>
##  1         4.05         15.0
##  2         4.10         14.8
##  3         4.36         13.9
##  4         3.87         14.3
##  5         4.87         14.1
##  6         4.40         14.9
##  7         5.06         14.5
##  8         4.82         15.5
##  9         3.87         15.9
## 10         4.27         14.1
## #  with 312 more rows

Exercises

What are two other ways of only selecting the x.coordinate and y.coordinate columns?

Can you use select to move the year variable from second column to last?

Exercises

What are two other ways of only selecting the x.coordinate and y.coordinate columns?

select(coord, x.coordinate, y.coordinate)

## # A tibble: 322 x 2
##    x.coordinate y.coordinate
##           <dbl>        <dbl>
##  1         4.05         15.0
##  2         4.10         14.8
##  3         4.36         13.9
##  4         3.87         14.3
##  5         4.87         14.1
##  6         4.40         14.9
##  7         5.06         14.5
##  8         4.82         15.5
##  9         3.87         15.9
## 10         4.27         14.1
## #  with 312 more rows

select(coord, contains("coordinate"))

## # A tibble: 322 x 2
##    x.coordinate y.coordinate
##           <dbl>        <dbl>
##  1         4.05         15.0
##  2         4.10         14.8
##  3         4.36         13.9
##  4         3.87         14.3
##  5         4.87         14.1
##  6         4.40         14.9
##  7         5.06         14.5
##  8         4.82         15.5
##  9         3.87         15.9
## 10         4.27         14.1
## #  with 312 more rows

Exercises

Can you use select to move the year variable from second column to last?

select(coord, name, cluster, type, x.coordinate, y.coordinate, location, lat,
       lng, year)

## # A tibble: 322 x 9
##    name  cluster type  x.coordinate y.coordinate location   lat   lng  year
##    <chr> <chr>   <chr>        <dbl>        <dbl> <chr>    <dbl> <dbl> <dbl>
##  1 BI/1 HK68    AG            4.05         15.0 BILTHOV  52.1  5.02  1968
##  2 BI/1 HK68    AG            4.10         14.8 BILTHOV  52.1  5.02  1968
##  3 BI/1 HK68    AG            4.36         13.9 BILTHOV  52.1  5.02  1968
##  4 BI/8 HK68    AG            3.87         14.3 BILTHOV  52.1  5.02  1969
##  5 BI/9 HK68    AG            4.87         14.1 BILTHOV  52.1  5.02  1969
##  6 BI/1 HK68    AG            4.40         14.9 BILTHOV  52.1  5.02  1969
##  7 BI/9 HK68    AG            5.06         14.5 BILTHOV  52.1  5.02  1970
##  8 BI/2 HK68    AG            4.82         15.5 BILTHOV  52.1  5.02  1970
##  9 BI/6 HK68    AG            3.87         15.9 BILTHOV  52.1  5.02  1971
## 10 BI/2 HK68    AG            4.27         14.1 BILTHOV  52.1  5.02  1971
## #  with 312 more rows
…
first argument: name of the tibble to which we want to add a variable

subsequent argument:

name of the new variable

an equal sign =

and the data to add.

Example: create a new variable, that contains the Euclidean distance of each antigen from the origin at (0,0):

mutate(coord, distance=sqrt(x.coordinate^2 + y.coordinate^2))

## # A tibble: 322 x 10
##    name   year cluster type  x.coordinate y.coordinate location   lat   lng
##    <chr> <dbl> <chr>   <chr>        <dbl>        <dbl> <chr>    <dbl> <dbl>
##  1 BI/1  1968 HK68    AG            4.05         15.0 BILTHOV  52.1  5.02
##  2 BI/1  1968 HK68    AG            4.10         14.8 BILTHOV  52.1  5.02
##  3 BI/1  1968 HK68    AG            4.36         13.9 BILTHOV  52.1  5.02
##  4 BI/8  1969 HK68    AG            3.87         14.3 BILTHOV  52.1  5.02
##  5 BI/9  1969 HK68    AG            4.87         14.1 BILTHOV  52.1  5.02
##  6 BI/1  1969 HK68    AG            4.40         14.9 BILTHOV  52.1  5.02
##  7 BI/9  1970 HK68    AG            5.06         14.5 BILTHOV  52.1  5.02
##  8 BI/2  1970 HK68    AG            4.82         15.5 BILTHOV  52.1  5.02
##  9 BI/6  1971 HK68    AG            3.87         15.9 BILTHOV  52.1  5.02
## 10 BI/2  1971 HK68    AG            4.27         14.1 BILTHOV  52.1  5.02
## #  with 312 more rows, and 1 more variable: distance <dbl>
…
Exercises

Add a new column that contains the time difference between this year, 2020, and the year the virus was isolated.

Save the result of this mutate in a new object.

Move the new column between the year and cluster columns.

Exercises

Add a new column that contains the time difference between this year, 2020, and the year the virus was isolated.

mutate(coord, difference=2020-year)

## # A tibble: 322 x 10
##    name   year cluster type  x.coordinate y.coordinate location   lat   lng
##    <chr> <dbl> <chr>   <chr>        <dbl>        <dbl> <chr>    <dbl> <dbl>
##  1 BI/1  1968 HK68    AG            4.05         15.0 BILTHOV  52.1  5.02
##  2 BI/1  1968 HK68    AG            4.10         14.8 BILTHOV  52.1  5.02
##  3 BI/1  1968 HK68    AG            4.36         13.9 BILTHOV  52.1  5.02
##  4 BI/8  1969 HK68    AG            3.87         14.3 BILTHOV  52.1  5.02
##  5 BI/9  1969 HK68    AG            4.87         14.1 BILTHOV  52.1  5.02
##  6 BI/1  1969 HK68    AG            4.40         14.9 BILTHOV  52.1  5.02
##  7 BI/9  1970 HK68    AG            5.06         14.5 BILTHOV  52.1  5.02
##  8 BI/2  1970 HK68    AG            4.82         15.5 BILTHOV  52.1  5.02
##  9 BI/6  1971 HK68    AG            3.87         15.9 BILTHOV  52.1  5.02
## 10 BI/2  1971 HK68    AG            4.27         14.1 BILTHOV  52.1  5.02
## #  with 312 more rows, and 1 more variable: difference <dbl>
…
Save the result of this mutate in a new object.

coord_new <- mutate(coord, difference=2020-year)

Exercises

Move the new column between the year and cluster columns.

by naming all variables:

select(coord_new, name, year, difference, cluster, type, x.coordinate,
       y.coordinate, location, lat, lng)

## # A tibble: 322 x 10
##    name   year difference cluster type  x.coordinate y.coordinate location
##    <chr> <dbl>      <dbl> <chr>   <chr>        <dbl>        <dbl> <chr>   
##  1 BI/1  1968         52 HK68    AG            4.05         15.0 BILTHOV
##  2 BI/1  1968         52 HK68    AG            4.10         14.8 BILTHOV
##  3 BI/1  1968         52 HK68    AG            4.36         13.9 BILTHOV
##  4 BI/8  1969         51 HK68    AG            3.87         14.3 BILTHOV
##  5 BI/9  1969         51 HK68    AG            4.87         14.1 BILTHOV
##  6 BI/1  1969         51 HK68    AG            4.40         14.9 BILTHOV
##  7 BI/9  1970         50 HK68    AG            5.06         14.5 BILTHOV
##  8 BI/2  1970         50 HK68    AG            4.82         15.5 BILTHOV
##  9 BI/6  1971         49 HK68    AG            3.87         15.9 BILTHOV
## 10 BI/2  1971         49 HK68    AG            4.27         14.1 BILTHOV
## #  with 312 more rows, and 2 more variables: lat <dbl>, lng <dbl>

by using the everything function, which matches everything that has not specifically been named before:

select(coord_new, name, year, difference,everything())

## # A tibble: 322 x 10
##    name   year difference cluster type  x.coordinate y.coordinate location
##    <chr> <dbl>      <dbl> <chr>   <chr>        <dbl>        <dbl> <chr>   
##  1 BI/1  1968         52 HK68    AG            4.05         15.0 BILTHOV
##  2 BI/1  1968         52 HK68    AG            4.10         14.8 BILTHOV
##  3 BI/1  1968         52 HK68    AG            4.36         13.9 BILTHOV
##  4 BI/8  1969         51 HK68    AG            3.87         14.3 BILTHOV
##  5 BI/9  1969         51 HK68    AG            4.87         14.1 BILTHOV
##  6 BI/1  1969         51 HK68    AG            4.40         14.9 BILTHOV
##  7 BI/9  1970         50 HK68    AG            5.06         14.5 BILTHOV
##  8 BI/2  1970         50 HK68    AG            4.82         15.5 BILTHOV
##  9 BI/6  1971         49 HK68    AG            3.87         15.9 BILTHOV
## 10 BI/2  1971         49 HK68    AG            4.27         14.1 BILTHOV
## #  with 312 more rows, and 2 more variables: lat <dbl>, lng <dbl>
…
>: greater than

>=: greater or equal than

<: less than

<=: less or equal than

Note: When testing for equality, make sure to use == and not a simple =!

Example: select all observations of viruses in circulation before 1988:

filter(coord, year < 1988)

## # A tibble: 88 x 9
##    name   year cluster type  x.coordinate y.coordinate location   lat   lng
##    <chr> <dbl> <chr>   <chr>        <dbl>        <dbl> <chr>    <dbl> <dbl>
##  1 BI/1  1968 HK68    AG            4.05         15.0 BILTHOV  52.1  5.02
##  2 BI/1  1968 HK68    AG            4.10         14.8 BILTHOV  52.1  5.02
##  3 BI/1  1968 HK68    AG            4.36         13.9 BILTHOV  52.1  5.02
##  4 BI/8  1969 HK68    AG            3.87         14.3 BILTHOV  52.1  5.02
##  5 BI/9  1969 HK68    AG            4.87         14.1 BILTHOV  52.1  5.02
##  6 BI/1  1969 HK68    AG            4.40         14.9 BILTHOV  52.1  5.02
##  7 BI/9  1970 HK68    AG            5.06         14.5 BILTHOV  52.1  5.02
##  8 BI/2  1970 HK68    AG            4.82         15.5 BILTHOV  52.1  5.02
##  9 BI/6  1971 HK68    AG            3.87         15.9 BILTHOV  52.1  5.02
## 10 BI/2  1971 HK68    AG            4.27         14.1 BILTHOV  52.1  5.02
## #  with 78 more rows
…
Boolean operators with filter

simplest boolean operator: multiple arguments to filter() are combined with and

Example: all observations of viruses in circulation before 1988 in BILTHOVEN.

filter(coord, year < 1988, location == "BILTHOVEN")

## # A tibble: 40 x 9
##    name   year cluster type  x.coordinate y.coordinate location   lat   lng
##    <chr> <dbl> <chr>   <chr>        <dbl>        <dbl> <chr>    <dbl> <dbl>
##  1 BI/1  1968 HK68    AG            4.05         15.0 BILTHOV  52.1  5.02
##  2 BI/1  1968 HK68    AG            4.10         14.8 BILTHOV  52.1  5.02
##  3 BI/1  1968 HK68    AG            4.36         13.9 BILTHOV  52.1  5.02
##  4 BI/8  1969 HK68    AG            3.87         14.3 BILTHOV  52.1  5.02
##  5 BI/9  1969 HK68    AG            4.87         14.1 BILTHOV  52.1  5.02
##  6 BI/1  1969 HK68    AG            4.40         14.9 BILTHOV  52.1  5.02
##  7 BI/9  1970 HK68    AG            5.06         14.5 BILTHOV  52.1  5.02
##  8 BI/2  1970 HK68    AG            4.82         15.5 BILTHOV  52.1  5.02
##  9 BI/6  1971 HK68    AG            3.87         15.9 BILTHOV  52.1  5.02
## 10 BI/2  1971 HK68    AG            4.27         14.1 BILTHOV  52.1  5.02
## #  with 30 more rows
…
